^C:\USERS\BV\SOURCE\REPOS\HOME WORK 19\HOME WORK 19.CPP
C:\USERS\BV\SOURCE\REPOS\HOME WORK 19\DEBUG\VC142.PDB
C:\USERS\BV\SOURCE\REPOS\HOME WORK 19\DEBUG\VC142.IDB
C:\USERS\BV\SOURCE\REPOS\HOME WORK 19\DEBUG\HOME WORK 19.OBJ
